%YAML 1.1
%TAG !u! tag:unity3d.com,2011:
--- !u!21 &2100000
Material:
  serializedVersion: 3
  m_ObjectHideFlags: 0
  m_PrefabParentObject: {fileID: 0}
  m_PrefabInternal: {fileID: 0}
  m_Name: plasterWall_b
  m_Shader: {fileID: 4800000, guid: b5a856c97a2540440bf0bef4ac8a2f45, type: 3}
  m_ShaderKeywords: []
  m_CustomRenderQueue: -1
  m_SavedProperties:
    serializedVersion: 2
    m_TexEnvs:
      data:
        first:
          name: _MainTex
        second:
          m_Texture: {fileID: 2800000, guid: e1bd26a21db0b9e47b7bbe1a58b37f9a, type: 3}
          m_Scale: {x: 1, y: 1}
          m_Offset: {x: 0, y: 0}
      data:
        first:
          name: _BumpMap
        second:
          m_Texture: {fileID: 2800000, guid: 851f07aec654b234ba77fd5f4bb581f0, type: 3}
          m_Scale: {x: 1, y: 1}
          m_Offset: {x: 0, y: 0}
      data:
        first:
          name: _UpTex
        second:
          m_Texture: {fileID: 2800000, guid: cc84d431e6b14454e97959ac5e1e1e21, type: 3}
          m_Scale: {x: 1, y: 1}
          m_Offset: {x: 0, y: 0}
      data:
        first:
          name: _SideTex
        second:
          m_Texture: {fileID: 2800000, guid: c364f2458331f124891029bac23bd373, type: 3}
          m_Scale: {x: 1, y: 1}
          m_Offset: {x: 0, y: 0}
      data:
        first:
          name: _UpBumpMap
        second:
          m_Texture: {fileID: 0}
          m_Scale: {x: 1, y: 1}
          m_Offset: {x: 0, y: 0}
    m_Floats:
      data:
        first:
          name: _Shininess
        second: .234106183
      data:
        first:
          name: _RimPower
        second: 4.15384626
      data:
        first:
          name: _UpTexTile
        second: 1
      data:
        first:
          name: _UpTexFocus
        second: .600000024
      data:
        first:
          name: _UpTexIntensity
        second: 0
      data:
        first:
          name: _SideTexFocus
        second: 4
      data:
        first:
          name: _SideTexIntensity
        second: .553846121
    m_Colors:
      data:
        first:
          name: _Color
        second: {r: 1, g: 1, b: 1, a: 1}
      data:
        first:
          name: _SpecColor
        second: {r: .201492548, g: .201492548, b: .201492548, a: 1}
      data:
        first:
          name: _RimColor
        second: {r: .104477584, g: .104477584, b: .104477584, a: 0}
