%YAML 1.1
%TAG !u! tag:unity3d.com,2011:
--- !u!114 &11400000
MonoBehaviour:
  m_ObjectHideFlags: 0
  m_PrefabParentObject: {fileID: 0}
  m_PrefabInternal: {fileID: 0}
  m_GameObject: {fileID: 0}
  m_Enabled: 1
  m_EditorHideFlags: 0
  m_Script: {fileID: 11500000, guid: b24777957ec9d44649061dab714daf90, type: 3}
  m_Name: AppParameters
  m_EditorClassIdentifier: 
  m_releaseType: Release
  m_platformType: Android
  m_distributionPlatform: GooglePlay
  m_platformArchitecture: 
  m_textureCompression: Generic
  m_productName: EGO
  m_bundleIdentifier: com.lunagames.ego
  m_bundleVersion: 1.0.0
