%YAML 1.1
%TAG !u! tag:unity3d.com,2011:
--- !u!114 &11400000
MonoBehaviour:
  m_ObjectHideFlags: 0
  m_PrefabParentObject: {fileID: 0}
  m_PrefabInternal: {fileID: 0}
  m_GameObject: {fileID: 0}
  m_Enabled: 1
  m_EditorHideFlags: 0
  m_Script: {fileID: 11500000, guid: 8d89344963f3845a6962e222ee0b4b74, type: 3}
  m_Name: AdvancedBuilder
  m_EditorClassIdentifier: 
  m_productParameters:
    bundleVersion: 1.1.0
  m_releaseTypes:
    m_releaseTypeList:
    - isActive: 1
      name: Release
      bundleIdentifier: com.weallloveapps.games.missilecommander
      productName: Anti Tank
  m_platforms:
    m_plateformAndroid:
      m_platformProperties:
        isActive: 1
        m_isSupported: 1
        m_distributionPlatformList:
        - isActive: 1
          name: Google Play
        - isActive: 1
          name: Generic
        m_platformArchitectureList:
        - isActive: 1
      m_textureCompressionList:
      - m_isActive: 0
      - m_isActive: 0
      - m_isActive: 0
      - m_isActive: 0
      - m_isActive: 1
    m_plateformiOS:
      m_platformProperties:
        isActive: 0
        m_isSupported: 1
        m_distributionPlatformList: []
        m_platformArchitectureList:
        - isActive: 1
    m_plateformWebPlayer:
      m_platformProperties:
        isActive: 0
        m_isSupported: 0
        m_distributionPlatformList:
        - isActive: 1
          name: My Website
        - isActive: 1
          name: Kongregate
        m_platformArchitectureList:
        - isActive: 1
        - isActive: 0
    m_plateformWindows:
      m_platformProperties:
        isActive: 0
        m_isSupported: 0
        m_distributionPlatformList: []
        m_platformArchitectureList:
        - isActive: 1
        - isActive: 0
    m_plateformMac:
      m_platformProperties:
        isActive: 0
        m_isSupported: 0
        m_distributionPlatformList: []
        m_platformArchitectureList:
        - isActive: 1
        - isActive: 0
        - isActive: 0
    m_plateformLinux:
      m_platformProperties:
        isActive: 0
        m_isSupported: 0
        m_distributionPlatformList: []
        m_platformArchitectureList:
        - isActive: 1
        - isActive: 0
        - isActive: 0
    m_plateformWindowsPhone8:
      m_platformProperties:
        isActive: 1
        m_isSupported: 1
        m_distributionPlatformList: []
        m_platformArchitectureList:
        - isActive: 1
    m_plateformWindowsStore8:
      m_platformProperties:
        isActive: 0
        m_isSupported: 0
        m_distributionPlatformList: []
        m_platformArchitectureList:
        - isActive: 0
        - isActive: 1
        - isActive: 0
        - isActive: 0
    m_plateformBlackBerry:
      m_platformProperties:
        isActive: 0
        m_isSupported: 0
        m_distributionPlatformList: []
        m_platformArchitectureList:
        - isActive: 1
        - isActive: 0
      m_textureCompressionList:
      - m_isActive: 0
      - m_isActive: 0
      - m_isActive: 0
      - m_isActive: 1
  m_advancedSettings:
    customPath: $BUILD_DATE/$RELEASE_TYPE/$PLATFORM/$DISTRIB_PLATFORM/$ARCHITECTURE/
    customBuildMonoScript: {fileID: 0}
    openBuildFolder: 1
    isDevelopmentBuild: 0
    shouldAutoconnectProfiler: 0
    shouldAutoRunPlayer: 0
    allowDebugging: 0
    appendProject: 0
    useSymlinkLibraries: 0
    checkAndroidKeystorePasswords: 0
